…
    ## # A tibble: 1 x 1
    ##   meanStep
    ##      <dbl>
    ## 1     37.4

What is the average daily activity pattern?
-------------------------------------------

    interval <- steps %>% group_by(interval) %>%  summarize(steps = mean(steps, na.rm = TRUE))

    ## `summarise()` ungrouping output (override with `.groups` argument)

    interval

    ## # A tibble: 288 x 2
    ##    interval  steps
    ##       <int>  <dbl>
    ##  1        0 1.72  
    ##  2        5 0.340 
    ##  3       10 0.132 
    ##  4       15 0.151 
    ##  5       20 0.0755
    ##  6       25 2.09  
    ##  7       30 0.528 
    ##  8       35 0.868 
    ##  9       40 0     
    ## 10       45 1.47  
    ## # ... with 278 more rows
…
    ## [1] 0

### Recalculate the mean

    fullStepsNa <- fullSteps %>%
      filter(!is.na(steps)) %>%
      group_by(date) %>%
      summarize(steps = sum(steps)) %>%
      print

    ## `summarise()` ungrouping output (override with `.groups` argument)

    ## # A tibble: 61 x 2
    ##    date        steps
    ##    <date>      <dbl>
    ##  1 2012-10-01 10766.
    ##  2 2012-10-02   126 
    ##  3 2012-10-03 11352 
    ##  4 2012-10-04 12116 
    ##  5 2012-10-05 13294 
    ##  6 2012-10-06 15420 
    ##  7 2012-10-07 11015 
    ##  8 2012-10-08 10766.
    ##  9 2012-10-09 12811 
    ## 10 2012-10-10  9900 
    ## # ... with 51 more rows
…
